{
	"info": {
		"_postman_id": "03cbcf10-334e-4d1e-8e1a-16c2604fcdd4",
		"name": "raxa_new",
		"schema": "https://schema.getpostman.com/json/collection/v2.1.0/collection.json"
	},
	"item": [
		{
			"name": "salvar grupo",
			"request": {
				"auth": {
					"type": "basic"
				},
				"method": "POST",
				"header": [],
				"body": {
					"mode": "formdata",
					"formdata": [
						{
							"key": "name",
							"value": "teste",
							"type": "text"
						}
					]
				},
				"url": {
					"raw": "http://dev.raxanew.com/group",
					"protocol": "http",
					"host": [
						"dev",
						"raxanew",
						"com"
					],
					"path": [
						"group"
					]
				},
				"description": "Rota que salva um grupo: name"
			},
			"response": []
		},
		{
			"name": "rota para salvar um usuario",
			"request": {
				"method": "POST",
				"header": [],
				"body": {
					"mode": "formdata",
					"formdata": [
						{
							"key": "login",
							"value": "jadis",
							"type": "text"
						},
						{
							"key": "is_admin",
							"value": "1",
							"type": "text"
						},
						{
							"key": "password",
							"value": "112233",
							"type": "text"
						},
						{
							"key": "photo",
							"value": "caminho da foto",
							"type": "text"
						},
						{
							"key": "name",
							"value": "Jadis",
							"type": "text"
						}
					]
				},
				"url": {
					"raw": "http://dev.raxanew.com/user",
					"protocol": "http",
					"host": [
						"dev",
						"raxanew",
						"com"
					],
					"path": [
						"user"
					]
				}
			},
			"response": []
		}
	]
}